<?xml version="1.0" encoding="UTF-8"?>
<svg width="18px" height="18px" viewBox="0 0 18 18" version="1.1" xmlns="http://www.w3.org/2000/svg" xmlns:xlink="http://www.w3.org/1999/xlink">
    <!-- Generator: Sketch 54.1 (76490) - https://sketchapp.com -->
    <title>search-active</title>
    <desc>Created with Sketch.</desc>
    <g id="Symbols" stroke="none" stroke-width="1" fill="none" fill-rule="evenodd">
        <g id="icon/dark/search" transform="translate(-3.000000, -3.000000)" fill="#373737" fill-rule="nonzero">
            <path d="M15.5424528,14.1273584 L14.7971698,14.1273584 L14.5330189,13.8726414 C15.4575472,12.7971697 16.0141509,11.4009433 16.0141509,9.88207539 C16.0141509,6.49528298 13.2688679,3.75 9.88207547,3.75 C6.49528302,3.75 3.75,6.49528298 3.75,9.88207539 C3.75,13.2688678 6.49528302,16.0141508 9.88207547,16.0141508 C11.4009434,16.0141508 12.7971698,15.457547 13.8726415,14.5330187 L14.1273585,14.7971697 L14.1273585,15.5424527 L18.8443396,20.2499998 L20.25,18.8443394 L15.5424528,14.1273584 Z M9.88207547,14.1273584 C7.53301887,14.1273584 5.63679245,12.231132 5.63679245,9.88207539 C5.63679245,7.53301882 7.53301887,5.63679243 9.88207547,5.63679243 C12.2311321,5.63679243 14.1273585,7.53301882 14.1273585,9.88207539 C14.1273585,12.231132 12.2311321,14.1273584 9.88207547,14.1273584 Z" id="Shape-Copy"></path>
        </g>
    </g>
</svg>